\relax 
\providecommand\hyper@newdestlabel[2]{}
\providecommand\HyperFirstAtBeginDocument{\AtBeginDocument}
\HyperFirstAtBeginDocument{\ifx\hyper@anchor\@undefined
\global\let\oldcontentsline\contentsline
\gdef\contentsline#1#2#3#4{\oldcontentsline{#1}{#2}{#3}}
\global\let\oldnewlabel\newlabel
\gdef\newlabel#1#2{\newlabelxx{#1}#2}
\gdef\newlabelxx#1#2#3#4#5#6{\oldnewlabel{#1}{{#2}{#3}}}
\AtEndDocument{\ifx\hyper@anchor\@undefined
\let\contentsline\oldcontentsline
\let\newlabel\oldnewlabel
\fi}
\fi}
\global\let\hyper@last\relax 
\gdef\HyperFirstAtBeginDocument#1{#1}
\providecommand\HyField@AuxAddToFields[1]{}
\providecommand\HyField@AuxAddToCoFields[2]{}
\@writefile{toc}{\contentsline {section}{\numberline {1}Abstract and Goal}{2}{section.1}}
\@writefile{toc}{\contentsline {section}{\numberline {2}Background and Motivation}{2}{section.2}}
\@writefile{toc}{\contentsline {section}{\numberline {3}Project Process}{2}{section.3}}
\@writefile{toc}{\contentsline {subsection}{\numberline {3.1}Building Relationship Network}{2}{subsection.3.1}}
\@writefile{toc}{\contentsline {subsection}{\numberline {3.2}Recommendation System}{4}{subsection.3.2}}
\@writefile{toc}{\contentsline {subsubsection}{\numberline {3.2.1}Recommendation System Method 1}{4}{subsubsection.3.2.1}}
\@writefile{toc}{\contentsline {subsubsection}{\numberline {3.2.2}Recommendation System Method 2}{5}{subsubsection.3.2.2}}
\@writefile{toc}{\contentsline {section}{\numberline {4}Future Work}{7}{section.4}}
\@writefile{toc}{\contentsline {subsection}{\numberline {4.1}Porssible Plan}{7}{subsection.4.1}}
\@writefile{toc}{\contentsline {subsection}{\numberline {4.2}Our Current Progress}{8}{subsection.4.2}}
\@writefile{toc}{\contentsline {subsection}{\numberline {4.3}Challenges}{8}{subsection.4.3}}
\@writefile{toc}{\contentsline {section}{\numberline {5}Appendix}{9}{section.5}}
\@writefile{toc}{\contentsline {subsection}{\numberline {5.1}Codes}{9}{subsection.5.1}}
